ï»¿# Music Recommendations
age,gender,genre
20,1,HipHop
23,1,HipHop
25,1,HipHop
26,1,Jazz
29,1,Jazz
30,1,Jazz
31,1,Classical
33,1,Classical
37,1,Classical
20,0,Dance
21,0,Dance
25,0,Dance
26,0,Acoustic
27,0,Acoustic
30,0,Acoustic
31,0,Classical
34,0,Classical
35,0,Classical
